Session,Sentence,Original,Answer 1,Votes,Correct,Answer 2,Votes,Correct,Answer 3,Votes,Correct,Answer 4,Votes,Correct,Answer 5,Votes,Correct,Answer 6,Votes,Correct,Answer 7,Votes,Correct,None-votes,None-votes-correct
1,LET'S THINK ABOUT THOSE GENTLE GIANTS AND GET ON TO HARFANG AS QUICKLY AS WE CAN.,GET ON,HEAD,3,1,PROCEED,2,1,GO,0,1,CONTINUE,0,1,LEAVE FOR,0,0,-,-,-,-,-,-,0,0
1,"WHEN I GOT OUT AT THE FIFTH FLOOR AND WALKED ALONG THE CORRIDOR, THE ELEVATOR OPERATOR STAYED AND WATCHED ME.",GOT OUT,ARRIVED,1,0,EXITED,2,1,EXITED,2,1,ARRIVED,1,0,ARRIVED,1,0,-,-,-,-,-,-,2,0
1,BUT UNCLE VERNON WASN’T GOING TO GIVE IN WITHOUT A FIGHT.,GIVE IN,BACK DOWN,3,1,CONCEDE,1,0,CONCEDE,1,0,AGREE,0,0,SURRENDER,1,1,-,-,-,-,-,-,0,0
1,"SEASICKNESS COMES ON QUICKLY, BUT IT TAKES A LONG WHILE TO GO AWAY.",GO AWAY,DISAPPEAR,0,1,SUBSIDE,4,1,ABATE,1,1,LEAVE,0,1,DISAPPEAR,0,1,-,-,-,-,-,-,0,0
1,SO I WAITED AND LISTENED FOR MY NAME AS SHE WENT DOWN THE LIST ALPHABETICALLY.,WENT DOWN,WENT THROUGH,1,1,WENT THROUGH,1,1,WENT THROUGH,1,1,ANNOUNCED,0,1,WENT THROUGH,1,1,-,-,-,-,-,-,2,0
2,THEN I WONDERED HOW HER FACE WOULD LOOK WHEN SHE CAME OUT FROM BEHIND THOSE DOORS.,CAME OUT,APPEARED,1,1,APPEARED,1,1,APPEARS,0,0,EMERGED,3,1,-,-,-,-,-,-,-,-,-,0,0
2,HE KNEW THERE WAS NO CHANCE HE WOULD END UP LIKE THAT.,END UP,FINISH,0,0,BECOME,1,1,WIND UP,3,1,COME BACK,0,0,-,-,-,-,-,-,-,-,-,0,0
2,TO BE AFRAID OF THIS RIDICULOUS DOG WHEN THERE WAS A TIGER ABOUT WAS LIKE BEING AFRAID OF SPLINTERS WHEN TREES ARE FALLING DOWN.,FALLING DOWN,DROPPING DOWN,2,0,COLLAPSING,1,0,COLLAPSING,1,0,AROUND,0,0,-,-,-,-,-,-,-,-,-,0,1
2,"THEIR RESPECTFUL ATTENTION TO BEAN SOON PREVAILED, AND SILENCE FELL OVER THE ROOM.",FELL OVER,BLANKETED,1,1,DESCENDED,0,0,BEFELL,2,0,FILLED,0,1,-,-,-,-,-,-,-,-,-,1,0
2,"ONCE THE VESSEL CRACKS, THE LIGHT CAN GET IN.",GET IN,SEEP THROUGH,2,1,GO THROUGH,0,0,ENTER,1,1,ENTER,1,1,-,-,-,-,-,-,-,-,-,0,0
3,VAL BROKE DOWN SOBBING.,BROKE DOWN,SNAPPED,1,0,STARTED,0,0,STARTED,0,0,LOST CONTROL,3,0,STARTED,0,0,COLLAPSED,3,1,STARTED,0,0,0,0
3,ALL AT ONCE THE CLEAR VOICE OF REEPICHEEP BROKE IN UPON THE SILENCE.,BROKE IN,INVADED,2,0,WAS HEARD,2,0,INTERFERED,0,0,INVADED,2,0,INVADED,2,0,INTERRUPTED,1,0,INTERRUPTED,1,0,2,1
3,THE PELLETS BURIED THEMSELVES IN THE WALL OF THE BARN AND THE MEETING BROKE UP HURRIEDLY.,BROKE UP,DISSOLVED,2,0,WAS CONCLUDED,2,0,FINISHED,0,1,WAS LEFT,1,0,SPLIT APART,1,0,SCATTERED,0,0,ENDED,1,1,0,0
4,VAL BROKE DOWN SOBBING.,BROKE DOWN,DESPAIRED,0,0,FALLING APART,1,0,COLLAPSED,2,1,HELPLESS,0,0,-,-,-,-,-,-,-,-,-,1,0
4,HE MOSTLY WALKS AROUND THE ROOF TRYING TO KEEP PEOPLE FROM BREAKING IN.,BREAKING IN,ENTERING,1,1,TRESPASSING,2,1,BARGING IN,1,0,INTERRUPT,0,0,-,-,-,-,-,-,-,-,-,0,0
4,"LAST NIGHT, CRAIG AND SAM BROKE UP.",BROKE UP,SEPARATED,3,0,ENDED,0,0,DISPARATE,0,0,SPLIT,1,1,-,-,-,-,-,-,-,-,-,0,0
4,THIS PART WASN'T A LIE: THAT VIA WAS CHECKING OUT HER NEW SCHOOL TODAY.,CHECKING OUT,LOOKING OUT,0,0,VISITING,1,1,SEEING,3,1,SETTLING,0,0,-,-,-,-,-,-,-,-,-,0,0
4,"NIGHTS LIKE THIS ONE DIDN’T COME ALONG OFTEN, AND I WANTED TO REMEMBER IT.",COME ALONG,HAPPEN,2,1,HAPPEN,2,1,OCCUR,2,1,GET ON,0,0,-,-,-,-,-,-,-,-,-,0,0
5,"FINALLY, THE CLOUDS ROLLED AWAY AND THE MOON CAME OUT.",CAME OUT,APPEARED,2,1,APPEARED,2,1,WAS REVEALED,3,0,APPEAR,0,0,WAS REVEALED,3,0,APPEARED,,,-,-,-,1,0
5,"SHE ONCE TRIED TO DRAW ME A DARTH VADER, BUT IT ENDED UP LOOKING LIKE SOME WEIRD MUSHROOM-SHAPED ROBOT.",ENDED UP,TURNED OUT,3,1,FINISHED,0,0,TURNED OUT,,,CAME OUT,2,0,TURNED OUT,3,1,TURNED OUT TO BE,0,1,-,-,-,1,0
5,THEN ASLAN ROARED SO THAT THE SUN SHOOK IN THE SKY AND THIRTY FEET OF THE WALL FELL DOWN BEFORE THEM.,FELL DOWN,COLLAPSED,1,1,CRUMBLED,2,1,COLLAPSED,1,1,TRIP,0,0,CRUMBLED,2,1,COLLAPSED,1,1,-,-,-,3,0
5,"THEIR RESPECTFUL ATTENTION TO BEAN SOON PREVAILED, AND SILENCE FELL OVER THE ROOM.",FELL OVER,TOOK OVER,4,1,TOOK OVER,4,1,FILLED,2,1,SLIPPED,0,0,FILLED,2,1,INUNDATED,0,0,-,-,-,0,0
5,"IT WAS AFTER HOURS, BUT BEAN COULD STILL PALM HIS WAY THROUGH THE LOCKS TO GET IN WITHOUT SETTING OFF ALARMS.",GET IN,ENTER,0,1,ENTER,0,1,BREAK IN,2,1,ENTER,0,1,ENTER,0,1,ENTER,0,1,-,-,-,4,0
